full_subber_16bit/output/full_subber_16bit_tb.vcd
$date
  Sun Jun 23 00:59:22 2024
$end
$version
  GHDL v0
$end
$timescale
  1 fs
$end
$scope module standard $end
$upscope $end
$scope module textio $end
$upscope $end
$scope module std_logic_1164 $end
$upscope $end
$scope module full_subber_16bit_tb $end
$var reg 16 ! a[15:0] $end
$var reg 16 " b[15:0] $end
$var reg 1 # b_in $end
$var reg 16 $ dif[15:0] $end
$var reg 1 % b_out $end
$scope module x $end
$var reg 16 & a[15:0] $end
$var reg 16 ' b[15:0] $end
$var reg 1 ( b_in $end
$var reg 16 ) dif[15:0] $end
$var reg 1 * b_out $end
$var reg 1 + b1 $end
$var reg 1 , b2 $end
$var reg 1 - b3 $end
$scope module fa0 $end
$var reg 4 . a[3:0] $end
$var reg 4 / b[3:0] $end
$var reg 1 0 b_in $end
$var reg 4 1 dif[3:0] $end
$var reg 1 2 b_out $end
$var reg 1 3 b1 $end
$var reg 1 4 b2 $end
$var reg 1 5 b3 $end
$scope module fa0 $end
$var reg 1 6 a $end
$var reg 1 7 b $end
$var reg 1 8 b_in $end
$var reg 1 9 dif $end
$var reg 1 : b_out $end
$var reg 1 ; x $end
$var reg 1 < y $end
$var reg 1 = z $end
$scope module hb1 $end
$var reg 1 > a $end
$var reg 1 ? b $end
$var reg 1 @ dif $end
$var reg 1 A borrow $end
$upscope $end
$scope module hb2 $end
$var reg 1 B a $end
$var reg 1 C b $end
$var reg 1 D dif $end
$var reg 1 E borrow $end
$upscope $end
$upscope $end
$scope module fa1 $end
$var reg 1 F a $end
$var reg 1 G b $end
$var reg 1 H b_in $end
$var reg 1 I dif $end
$var reg 1 J b_out $end
$var reg 1 K x $end
$var reg 1 L y $end
$var reg 1 M z $end
$scope module hb1 $end
$var reg 1 N a $end
$var reg 1 O b $end
$var reg 1 P dif $end
$var reg 1 Q borrow $end
$upscope $end
$scope module hb2 $end
$var reg 1 R a $end
$var reg 1 S b $end
$var reg 1 T dif $end
$var reg 1 U borrow $end
$upscope $end
$upscope $end
$scope module fa2 $end
$var reg 1 V a $end
$var reg 1 W b $end
$var reg 1 X b_in $end
$var reg 1 Y dif $end
$var reg 1 Z b_out $end
$var reg 1 [ x $end
$var reg 1 \ y $end
$var reg 1 ] z $end
$scope module hb1 $end
$var reg 1 ^ a $end
$var reg 1 _ b $end
$var reg 1 ` dif $end
$var reg 1 a borrow $end
$upscope $end
$scope module hb2 $end
$var reg 1 b a $end
$var reg 1 c b $end
$var reg 1 d dif $end
$var reg 1 e borrow $end
$upscope $end
$upscope $end
$scope module fa3 $end
$var reg 1 f a $end
$var reg 1 g b $end
$var reg 1 h b_in $end
$var reg 1 i dif $end
$var reg 1 j b_out $end
$var reg 1 k x $end
$var reg 1 l y $end
$var reg 1 m z $end
$scope module hb1 $end
$var reg 1 n a $end
$var reg 1 o b $end
$var reg 1 p dif $end
$var reg 1 q borrow $end
$upscope $end
$scope module hb2 $end
$var reg 1 r a $end
$var reg 1 s b $end
$var reg 1 t dif $end
$var reg 1 u borrow $end
$upscope $end
$upscope $end
$upscope $end
$scope module fa1 $end
$var reg 4 v a[3:0] $end
$var reg 4 w b[3:0] $end
$var reg 1 x b_in $end
$var reg 4 y dif[3:0] $end
$var reg 1 z b_out $end
$var reg 1 { b1 $end
$var reg 1 | b2 $end
$var reg 1 } b3 $end
$scope module fa0 $end
$var reg 1 !" a $end
$var reg 1 "" b $end
$var reg 1 #" b_in $end
$var reg 1 $" dif $end
$var reg 1 %" b_out $end
$var reg 1 &" x $end
$var reg 1 '" y $end
$var reg 1 (" z $end
$scope module hb1 $end
$var reg 1 )" a $end
$var reg 1 *" b $end
$var reg 1 +" dif $end
$var reg 1 ," borrow $end
$upscope $end
$scope module hb2 $end
$var reg 1 -" a $end
$var reg 1 ." b $end
$var reg 1 /" dif $end
$var reg 1 0" borrow $end
$upscope $end
$upscope $end
$scope module fa1 $end
$var reg 1 1" a $end
$var reg 1 2" b $end
$var reg 1 3" b_in $end
$var reg 1 4" dif $end
$var reg 1 5" b_out $end
$var reg 1 6" x $end
$var reg 1 7" y $end
$var reg 1 8" z $end
$scope module hb1 $end
$var reg 1 9" a $end
$var reg 1 :" b $end
$var reg 1 ;" dif $end
$var reg 1 <" borrow $end
$upscope $end
$scope module hb2 $end
$var reg 1 =" a $end
$var reg 1 >" b $end
$var reg 1 ?" dif $end
$var reg 1 @" borrow $end
$upscope $end
$upscope $end
$scope module fa2 $end
$var reg 1 A" a $end
$var reg 1 B" b $end
$var reg 1 C" b_in $end
$var reg 1 D" dif $end
$var reg 1 E" b_out $end
$var reg 1 F" x $end
$var reg 1 G" y $end
$var reg 1 H" z $end
$scope module hb1 $end
$var reg 1 I" a $end
$var reg 1 J" b $end
$var reg 1 K" dif $end
$var reg 1 L" borrow $end
$upscope $end
$scope module hb2 $end
$var reg 1 M" a $end
$var reg 1 N" b $end
$var reg 1 O" dif $end
$var reg 1 P" borrow $end
$upscope $end
$upscope $end
$scope module fa3 $end
$var reg 1 Q" a $end
$var reg 1 R" b $end
$var reg 1 S" b_in $end
$var reg 1 T" dif $end
$var reg 1 U" b_out $end
$var reg 1 V" x $end
$var reg 1 W" y $end
$var reg 1 X" z $end
$scope module hb1 $end
$var reg 1 Y" a $end
$var reg 1 Z" b $end
$var reg 1 [" dif $end
$var reg 1 \" borrow $end
$upscope $end
$scope module hb2 $end
$var reg 1 ]" a $end
$var reg 1 ^" b $end
$var reg 1 _" dif $end
$var reg 1 `" borrow $end
$upscope $end
$upscope $end
$upscope $end
$scope module fa2 $end
$var reg 4 a" a[3:0] $end
$var reg 4 b" b[3:0] $end
$var reg 1 c" b_in $end
$var reg 4 d" dif[3:0] $end
$var reg 1 e" b_out $end
$var reg 1 f" b1 $end
$var reg 1 g" b2 $end
$var reg 1 h" b3 $end
$scope module fa0 $end
$var reg 1 i" a $end
$var reg 1 j" b $end
$var reg 1 k" b_in $end
$var reg 1 l" dif $end
$var reg 1 m" b_out $end
$var reg 1 n" x $end
$var reg 1 o" y $end
$var reg 1 p" z $end
$scope module hb1 $end
$var reg 1 q" a $end
$var reg 1 r" b $end
$var reg 1 s" dif $end
$var reg 1 t" borrow $end
$upscope $end
$scope module hb2 $end
$var reg 1 u" a $end
$var reg 1 v" b $end
$var reg 1 w" dif $end
$var reg 1 x" borrow $end
$upscope $end
$upscope $end
$scope module fa1 $end
$var reg 1 y" a $end
$var reg 1 z" b $end
$var reg 1 {" b_in $end
$var reg 1 |" dif $end
$var reg 1 }" b_out $end
$var reg 1 !# x $end
$var reg 1 "# y $end
$var reg 1 ## z $end
$scope module hb1 $end
$var reg 1 $# a $end
$var reg 1 %# b $end
$var reg 1 &# dif $end
$var reg 1 '# borrow $end
$upscope $end
$scope module hb2 $end
$var reg 1 (# a $end
$var reg 1 )# b $end
$var reg 1 *# dif $end
$var reg 1 +# borrow $end
$upscope $end
$upscope $end
$scope module fa2 $end
$var reg 1 ,# a $end
$var reg 1 -# b $end
$var reg 1 .# b_in $end
$var reg 1 /# dif $end
$var reg 1 0# b_out $end
$var reg 1 1# x $end
$var reg 1 2# y $end
$var reg 1 3# z $end
$scope module hb1 $end
$var reg 1 4# a $end
$var reg 1 5# b $end
$var reg 1 6# dif $end
$var reg 1 7# borrow $end
$upscope $end
$scope module hb2 $end
$var reg 1 8# a $end
$var reg 1 9# b $end
$var reg 1 :# dif $end
$var reg 1 ;# borrow $end
$upscope $end
$upscope $end
$scope module fa3 $end
$var reg 1 <# a $end
$var reg 1 =# b $end
$var reg 1 ># b_in $end
$var reg 1 ?# dif $end
$var reg 1 @# b_out $end
$var reg 1 A# x $end
$var reg 1 B# y $end
$var reg 1 C# z $end
$scope module hb1 $end
$var reg 1 D# a $end
$var reg 1 E# b $end
$var reg 1 F# dif $end
$var reg 1 G# borrow $end
$upscope $end
$scope module hb2 $end
$var reg 1 H# a $end
$var reg 1 I# b $end
$var reg 1 J# dif $end
$var reg 1 K# borrow $end
$upscope $end
$upscope $end
$upscope $end
$scope module fa3 $end
$var reg 4 L# a[3:0] $end
$var reg 4 M# b[3:0] $end
$var reg 1 N# b_in $end
$var reg 4 O# dif[3:0] $end
$var reg 1 P# b_out $end
$var reg 1 Q# b1 $end
$var reg 1 R# b2 $end
$var reg 1 S# b3 $end
$scope module fa0 $end
$var reg 1 T# a $end
$var reg 1 U# b $end
$var reg 1 V# b_in $end
$var reg 1 W# dif $end
$var reg 1 X# b_out $end
$var reg 1 Y# x $end
$var reg 1 Z# y $end
$var reg 1 [# z $end
$scope module hb1 $end
$var reg 1 \# a $end
$var reg 1 ]# b $end
$var reg 1 ^# dif $end
$var reg 1 _# borrow $end
$upscope $end
$scope module hb2 $end
$var reg 1 `# a $end
$var reg 1 a# b $end
$var reg 1 b# dif $end
$var reg 1 c# borrow $end
$upscope $end
$upscope $end
$scope module fa1 $end
$var reg 1 d# a $end
$var reg 1 e# b $end
$var reg 1 f# b_in $end
$var reg 1 g# dif $end
$var reg 1 h# b_out $end
$var reg 1 i# x $end
$var reg 1 j# y $end
$var reg 1 k# z $end
$scope module hb1 $end
$var reg 1 l# a $end
$var reg 1 m# b $end
$var reg 1 n# dif $end
$var reg 1 o# borrow $end
$upscope $end
$scope module hb2 $end
$var reg 1 p# a $end
$var reg 1 q# b $end
$var reg 1 r# dif $end
$var reg 1 s# borrow $end
$upscope $end
$upscope $end
$scope module fa2 $end
$var reg 1 t# a $end
$var reg 1 u# b $end
$var reg 1 v# b_in $end
$var reg 1 w# dif $end
$var reg 1 x# b_out $end
$var reg 1 y# x $end
$var reg 1 z# y $end
$var reg 1 {# z $end
$scope module hb1 $end
$var reg 1 |# a $end
$var reg 1 }# b $end
$var reg 1 !$ dif $end
$var reg 1 "$ borrow $end
$upscope $end
$scope module hb2 $end
$var reg 1 #$ a $end
$var reg 1 $$ b $end
$var reg 1 %$ dif $end
$var reg 1 &$ borrow $end
$upscope $end
$upscope $end
$scope module fa3 $end
$var reg 1 '$ a $end
$var reg 1 ($ b $end
$var reg 1 )$ b_in $end
$var reg 1 *$ dif $end
$var reg 1 +$ b_out $end
$var reg 1 ,$ x $end
$var reg 1 -$ y $end
$var reg 1 .$ z $end
$scope module hb1 $end
$var reg 1 /$ a $end
$var reg 1 0$ b $end
$var reg 1 1$ dif $end
$var reg 1 2$ borrow $end
$upscope $end
$scope module hb2 $end
$var reg 1 3$ a $end
$var reg 1 4$ b $end
$var reg 1 5$ dif $end
$var reg 1 6$ borrow $end
$upscope $end
$upscope $end
$upscope $end
$upscope $end
$upscope $end
$enddefinitions $end
#0
b0000000000000011 !
b0000000000000001 "
0#
b0000000000000010 $
0%
b0000000000000011 &
b0000000000000001 '
0(
b0000000000000010 )
0*
0+
0,
0-
b0011 .
b0001 /
00
b0010 1
02
03
04
05
16
17
08
09
0:
0;
0<
0=
1>
1?
0@
0A
0B
0C
0D
0E
1F
0G
0H
1I
0J
1K
0L
0M
1N
0O
1P
0Q
1R
0S
1T
0U
0V
0W
0X
0Y
0Z
0[
0\
0]
0^
0_
0`
0a
0b
0c
0d
0e
0f
0g
0h
0i
0j
0k
0l
0m
0n
0o
0p
0q
0r
0s
0t
0u
b0000 v
b0000 w
0x
b0000 y
0z
0{
0|
0}
0!"
0""
0#"
0$"
0%"
0&"
0'"
0("
0)"
0*"
0+"
0,"
0-"
0."
0/"
00"
01"
02"
03"
04"
05"
06"
07"
08"
09"
0:"
0;"
0<"
0="
0>"
0?"
0@"
0A"
0B"
0C"
0D"
0E"
0F"
0G"
0H"
0I"
0J"
0K"
0L"
0M"
0N"
0O"
0P"
0Q"
0R"
0S"
0T"
0U"
0V"
0W"
0X"
0Y"
0Z"
0["
0\"
0]"
0^"
0_"
0`"
b0000 a"
b0000 b"
0c"
b0000 d"
0e"
0f"
0g"
0h"
0i"
0j"
0k"
0l"
0m"
0n"
0o"
0p"
0q"
0r"
0s"
0t"
0u"
0v"
0w"
0x"
0y"
0z"
0{"
0|"
0}"
0!#
0"#
0##
0$#
0%#
0&#
0'#
0(#
0)#
0*#
0+#
0,#
0-#
0.#
0/#
00#
01#
02#
03#
04#
05#
06#
07#
08#
09#
0:#
0;#
0<#
0=#
0>#
0?#
0@#
0A#
0B#
0C#
0D#
0E#
0F#
0G#
0H#
0I#
0J#
0K#
b0000 L#
b0000 M#
0N#
b0000 O#
0P#
0Q#
0R#
0S#
0T#
0U#
0V#
0W#
0X#
0Y#
0Z#
0[#
0\#
0]#
0^#
0_#
0`#
0a#
0b#
0c#
0d#
0e#
0f#
0g#
0h#
0i#
0j#
0k#
0l#
0m#
0n#
0o#
0p#
0q#
0r#
0s#
0t#
0u#
0v#
0w#
0x#
0y#
0z#
0{#
0|#
0}#
0!$
0"$
0#$
0$$
0%$
0&$
0'$
0($
0)$
0*$
0+$
0,$
0-$
0.$
0/$
00$
01$
02$
03$
04$
05$
06$
#1000000
b1010101010101010 !
b0101010101010101 "
b0101010101010101 $
b1010101010101010 &
b0101010101010101 '
b0101010101010101 )
b1010 .
b0101 /
b0101 1
13
15
06
19
1:
1;
1<
0>
1@
1A
1B
1D
1H
0I
1S
0T
1W
1Y
1Z
1[
1\
1_
1`
1a
1b
1d
1f
1h
0i
1k
1n
1p
1r
1s
0t
b1010 v
b0101 w
b0101 y
1{
1}
1""
1$"
1%"
1&"
1'"
1*"
1+"
1,"
1-"
1/"
11"
13"
04"
16"
19"
1;"
1="
1>"
0?"
1B"
1D"
1E"
1F"
1G"
1J"
1K"
1L"
1M"
1O"
1Q"
1S"
0T"
1V"
1Y"
1["
1]"
1^"
0_"
b1010 a"
b0101 b"
b0101 d"
1f"
1h"
1j"
1l"
1m"
1n"
1o"
1r"
1s"
1t"
1u"
1w"
1y"
1{"
0|"
1!#
1$#
1&#
1(#
1)#
0*#
1-#
1/#
10#
11#
12#
15#
16#
17#
18#
1:#
1<#
1>#
0?#
1A#
1D#
1F#
1H#
1I#
0J#
b1010 L#
b0101 M#
b0101 O#
1Q#
1S#
1U#
1W#
1X#
1Y#
1Z#
1]#
1^#
1_#
1`#
1b#
1d#
1f#
0g#
1i#
1l#
1n#
1p#
1q#
0r#
1u#
1w#
1x#
1y#
1z#
1}#
1!$
1"$
1#$
1%$
1'$
1)$
0*$
1,$
1/$
11$
13$
14$
05$
#2000000
b1111000011110000 !
b0000111100001111 "
b1110000111100001 $
b1111000011110000 &
b0000111100001111 '
b1110000111100001 )
1+
1-
b0000 .
b1111 /
b0001 1
12
14
0F
1G
1J
1L
0N
1O
1Q
1X
0Y
1c
0d
0f
1g
1j
1l
0n
1o
1q
b1111 v
b0000 w
1x
b1110 y
0{
0}
1!"
0""
1#"
0$"
0%"
0'"
1)"
0*"
0,"
1."
0/"
03"
14"
0>"
1?"
1A"
0B"
0E"
0G"
1I"
0J"
0L"
0S"
1T"
0^"
1_"
b0000 a"
b1111 b"
b0001 d"
1e"
1g"
0y"
1z"
1}"
1"#
0$#
1%#
1'#
1.#
0/#
19#
0:#
0<#
1=#
1@#
1B#
0D#
1E#
1G#
b1111 L#
b0000 M#
1N#
b1110 O#
0Q#
0S#
1T#
0U#
1V#
0W#
0X#
0Z#
1\#
0]#
0_#
1a#
0b#
0f#
1g#
0q#
1r#
1t#
0u#
0x#
0z#
1|#
0}#
0"$
0)$
1*$
04$
15$
#3000000
b0000000000000000 !
b0000000000000001 "
1#
b1111111111111110 $
1%
b0000000000000000 &
b0000000000000001 '
1(
b1111111111111110 )
1*
1+
1,
1-
b0001 /
10
b1110 1
12
14
15
18
09
1C
0D
0G
1I
1J
0K
0L
1M
0O
0P
0Q
0R
1T
1U
0W
1X
1Y
1Z
0[
0\
1]
0_
0`
0a
0b
1c
1d
1e
0g
1h
1i
1j
0k
0l
1m
0o
0p
0q
0r
1s
1t
1u
b0000 v
1x
b1111 y
1z
1{
1|
1}
0!"
1#"
1$"
1%"
0&"
1("
0)"
0+"
0-"
1."
1/"
10"
01"
13"
14"
15"
06"
18"
09"
0;"
0="
1>"
1?"
1@"
0A"
1C"
1D"
1E"
0F"
1H"
0I"
0K"
0M"
1N"
1O"
1P"
0Q"
1S"
1T"
1U"
0V"
1X"
0Y"
0["
0]"
1^"
1_"
1`"
b0000 b"
1c"
b1111 d"
1e"
1f"
1g"
1h"
0j"
1k"
1l"
1m"
0n"
0o"
1p"
0r"
0s"
0t"
0u"
1v"
1w"
1x"
0z"
1{"
1|"
1}"
0!#
0"#
1##
0%#
0&#
0'#
0(#
1)#
1*#
1+#
0-#
1.#
1/#
10#
01#
02#
13#
05#
06#
07#
08#
19#
1:#
1;#
0=#
1>#
1?#
1@#
0A#
0B#
1C#
0E#
0F#
0G#
0H#
1I#
1J#
1K#
b0000 L#
1N#
b1111 O#
1P#
1Q#
1R#
1S#
0T#
1V#
1W#
1X#
0Y#
1[#
0\#
0^#
0`#
1a#
1b#
1c#
0d#
1f#
1g#
1h#
0i#
1k#
0l#
0n#
0p#
1q#
1r#
1s#
0t#
1v#
1w#
1x#
0y#
1{#
0|#
0!$
0#$
1$$
1%$
1&$
0'$
1)$
1*$
1+$
0,$
1.$
0/$
01$
03$
14$
15$
16$
#4000000
b1111111111111111 !
b0000000000000000 "
0#
b1111111111111111 $
0%
b1111111111111111 &
b0000000000000000 '
0(
b1111111111111111 )
0*
0+
0,
0-
b1111 .
b0000 /
00
b1111 1
02
03
04
05
16
07
08
19
0:
0<
1>
0?
0A
0C
1D
1F
0H
1I
0J
1K
0M
1N
1P
1R
0S
1T
0U
1V
0X
1Y
0Z
1[
0]
1^
1`
1b
0c
1d
0e
1f
0h
1i
0j
1k
0m
1n
1p
1r
0s
1t
0u
b1111 v
0x
b1111 y
0z
0{
0|
0}
1!"
0#"
1$"
0%"
1&"
0("
1)"
1+"
1-"
0."
1/"
00"
11"
03"
14"
05"
16"
08"
19"
1;"
1="
0>"
1?"
0@"
1A"
0C"
1D"
0E"
1F"
0H"
1I"
1K"
1M"
0N"
1O"
0P"
1Q"
0S"
1T"
0U"
1V"
0X"
1Y"
1["
1]"
0^"
1_"
0`"
b1111 a"
0c"
b1111 d"
0e"
0f"
0g"
0h"
1i"
0k"
1l"
0m"
1n"
0p"
1q"
1s"
1u"
0v"
1w"
0x"
1y"
0{"
1|"
0}"
1!#
0##
1$#
1&#
1(#
0)#
1*#
0+#
1,#
0.#
1/#
00#
11#
03#
14#
16#
18#
09#
1:#
0;#
1<#
0>#
1?#
0@#
1A#
0C#
1D#
1F#
1H#
0I#
1J#
0K#
b1111 L#
0N#
b1111 O#
0P#
0Q#
0R#
0S#
1T#
0V#
1W#
0X#
1Y#
0[#
1\#
1^#
1`#
0a#
1b#
0c#
1d#
0f#
1g#
0h#
1i#
0k#
1l#
1n#
1p#
0q#
1r#
0s#
1t#
0v#
1w#
0x#
1y#
0{#
1|#
1!$
1#$
0$$
1%$
0&$
1'$
0)$
1*$
0+$
1,$
0.$
1/$
11$
13$
04$
15$
06$
#5000000
b1000000000000000 !
b1000000000000000 $
b1000000000000000 &
b1000000000000000 )
b0000 .
b0000 1
06
09
0;
0>
0@
0B
0D
0F
0I
0K
0N
0P
0R
0T
0V
0Y
0[
0^
0`
0b
0d
0f
0i
0k
0n
0p
0r
0t
b0000 v
b0000 y
0!"
0$"
0&"
0)"
0+"
0-"
0/"
01"
04"
06"
09"
0;"
0="
0?"
0A"
0D"
0F"
0I"
0K"
0M"
0O"
0Q"
0T"
0V"
0Y"
0["
0]"
0_"
b0000 a"
b0000 d"
0i"
0l"
0n"
0q"
0s"
0u"
0w"
0y"
0|"
0!#
0$#
0&#
0(#
0*#
0,#
0/#
01#
04#
06#
08#
0:#
0<#
0?#
0A#
0D#
0F#
0H#
0J#
b1000 L#
b1000 O#
0T#
0W#
0Y#
0\#
0^#
0`#
0b#
0d#
0g#
0i#
0l#
0n#
0p#
0r#
0t#
0w#
0y#
0|#
0!$
0#$
0%$
#6000000
b0111111111111111 !
b1111111111111111 "
1%
b0111111111111111 &
b1111111111111111 '
1*
b1111 .
b1111 /
16
17
1>
1?
1F
1G
1N
1O
1V
1W
1^
1_
1f
1g
1n
1o
b1111 v
b1111 w
1!"
1""
1)"
1*"
11"
12"
19"
1:"
1A"
1B"
1I"
1J"
1Q"
1R"
1Y"
1Z"
b1111 a"
b1111 b"
1i"
1j"
1q"
1r"
1y"
1z"
1$#
1%#
1,#
1-#
14#
15#
1<#
1=#
1D#
1E#
b0111 L#
b1111 M#
1P#
1T#
1U#
1\#
1]#
1d#
1e#
1l#
1m#
1t#
1u#
1|#
1}#
0'$
1($
1+$
1-$
0/$
10$
12$
#7000000
b0000111100001111 !
b0000111100001111 "
b0000000000000000 $
0%
b0000111100001111 &
b0000111100001111 '
b0000000000000000 )
0*
b0000 v
b0000 w
0!"
0""
0)"
0*"
01"
02"
09"
0:"
0A"
0B"
0I"
0J"
0Q"
0R"
0Y"
0Z"
b0000 L#
b0000 M#
b0000 O#
0P#
0T#
0U#
0\#
0]#
0d#
0e#
0l#
0m#
0t#
0u#
0|#
0}#
0($
0*$
0+$
0,$
0-$
00$
01$
02$
03$
05$
#8000000
b1000000000000001 !
b0000000000000001 "
b1000000000000000 $
b1000000000000001 &
b0000000000000001 '
b1000000000000000 )
b0001 .
b0001 /
0F
0G
0N
0O
0V
0W
0^
0_
0f
0g
0n
0o
b0000 a"
b0000 b"
0i"
0j"
0q"
0r"
0y"
0z"
0$#
0%#
0,#
0-#
04#
05#
0<#
0=#
0D#
0E#
b1000 L#
b1000 O#
1'$
1*$
1,$
1/$
11$
13$
15$
