full_subber_16bit/output/full_subber_4bit_tb.vcd
$date
  Sat Jun 22 22:27:41 2024
$end
$version
  GHDL v0
$end
$timescale
  1 fs
$end
$scope module standard $end
$upscope $end
$scope module textio $end
$upscope $end
$scope module std_logic_1164 $end
$upscope $end
$scope module full_subber_4bit_tb $end
$var reg 4 ! a[3:0] $end
$var reg 4 " b[3:0] $end
$var reg 1 # b_in $end
$var reg 4 $ dif[3:0] $end
$var reg 1 % b_out $end
$scope module x $end
$var reg 4 & a[3:0] $end
$var reg 4 ' b[3:0] $end
$var reg 1 ( b_in $end
$var reg 4 ) dif[3:0] $end
$var reg 1 * b_out $end
$var reg 1 + b1 $end
$var reg 1 , b2 $end
$var reg 1 - b3 $end
$scope module fa0 $end
$var reg 1 . a $end
$var reg 1 / b $end
$var reg 1 0 b_in $end
$var reg 1 1 dif $end
$var reg 1 2 b_out $end
$var reg 1 3 x $end
$var reg 1 4 y $end
$var reg 1 5 z $end
$scope module hb1 $end
$var reg 1 6 a $end
$var reg 1 7 b $end
$var reg 1 8 dif $end
$var reg 1 9 borrow $end
$upscope $end
$scope module hb2 $end
$var reg 1 : a $end
$var reg 1 ; b $end
$var reg 1 < dif $end
$var reg 1 = borrow $end
$upscope $end
$upscope $end
$scope module fa1 $end
$var reg 1 > a $end
$var reg 1 ? b $end
$var reg 1 @ b_in $end
$var reg 1 A dif $end
$var reg 1 B b_out $end
$var reg 1 C x $end
$var reg 1 D y $end
$var reg 1 E z $end
$scope module hb1 $end
$var reg 1 F a $end
$var reg 1 G b $end
$var reg 1 H dif $end
$var reg 1 I borrow $end
$upscope $end
$scope module hb2 $end
$var reg 1 J a $end
$var reg 1 K b $end
$var reg 1 L dif $end
$var reg 1 M borrow $end
$upscope $end
$upscope $end
$scope module fa2 $end
$var reg 1 N a $end
$var reg 1 O b $end
$var reg 1 P b_in $end
$var reg 1 Q dif $end
$var reg 1 R b_out $end
$var reg 1 S x $end
$var reg 1 T y $end
$var reg 1 U z $end
$scope module hb1 $end
$var reg 1 V a $end
$var reg 1 W b $end
$var reg 1 X dif $end
$var reg 1 Y borrow $end
$upscope $end
$scope module hb2 $end
$var reg 1 Z a $end
$var reg 1 [ b $end
$var reg 1 \ dif $end
$var reg 1 ] borrow $end
$upscope $end
$upscope $end
$scope module fa3 $end
$var reg 1 ^ a $end
$var reg 1 _ b $end
$var reg 1 ` b_in $end
$var reg 1 a dif $end
$var reg 1 b b_out $end
$var reg 1 c x $end
$var reg 1 d y $end
$var reg 1 e z $end
$scope module hb1 $end
$var reg 1 f a $end
$var reg 1 g b $end
$var reg 1 h dif $end
$var reg 1 i borrow $end
$upscope $end
$scope module hb2 $end
$var reg 1 j a $end
$var reg 1 k b $end
$var reg 1 l dif $end
$var reg 1 m borrow $end
$upscope $end
$upscope $end
$upscope $end
$upscope $end
$enddefinitions $end
#0
b0011 !
b0001 "
0#
b0010 $
0%
b0011 &
b0001 '
0(
b0010 )
0*
0+
0,
0-
1.
1/
00
01
02
03
04
05
16
17
08
09
0:
0;
0<
0=
1>
0?
0@
1A
0B
1C
0D
0E
1F
0G
1H
0I
1J
0K
1L
0M
0N
0O
0P
0Q
0R
0S
0T
0U
0V
0W
0X
0Y
0Z
0[
0\
0]
0^
0_
0`
0a
0b
0c
0d
0e
0f
0g
0h
0i
0j
0k
0l
0m
#1000000
b0010 !
b0001 $
b0010 &
b0001 )
1+
0.
11
12
13
14
06
18
19
1:
1<
1@
0A
1K
0L
#2000000
b1000 !
b0100 "
b0100 $
b1000 &
b0100 '
b0100 )
0+
0,
1-
0/
01
02
03
04
07
08
09
0:
0<
0>
0@
0A
0B
0C
0E
0F
0H
0J
0K
0L
0M
1O
0P
1Q
1R
1S
1T
1W
1X
1Y
1Z
0[
1\
1^
1`
0a
1c
1f
1h
1j
1k
0l
#3000000
b0110 !
b0011 "
b0011 $
0%
b0110 &
b0011 '
b0011 )
0*
1+
1,
0-
1/
11
12
13
14
17
18
19
1:
1<
1>
1?
1@
1A
1B
1E
1F
1G
1K
1L
1M
1N
0O
1P
0Q
0R
0T
1V
0W
0Y
1[
0\
0^
0`
0a
0b
0c
0e
0f
0h
0j
0k
0l
0m
#4000000
b0000 !
b0001 "
1#
b1110 $
1%
b0000 &
b0001 '
1(
b1110 )
1*
1-
10
01
1;
0<
0>
0?
0F
0G
0N
1Q
1R
0S
1U
0V
0X
0Z
1\
1]
1`
1a
1b
1e
1k
1l
1m
#5000000
b0101 !
b0010 "
0#
b0011 $
0%
b0101 &
b0010 '
0(
b0011 )
0*
0+
0-
1.
0/
00
11
02
04
16
07
09
0;
1<
1?
0@
1A
1C
1D
0E
1G
1H
1I
1J
0K
1L
0M
1N
0Q
0R
1S
0U
1V
1X
1Z
0\
0]
0`
0a
0b
0e
0k
0l
0m
#6000000
b0011 "
b0010 $
b0011 '
b0010 )
1/
01
03
17
08
0:
0<
#7000000
b1001 !
b0110 "
1#
b0010 $
b1001 &
b0110 '
1(
b0010 )
0+
1-
0/
10
01
02
13
05
07
18
1:
1;
0<
0=
0@
1A
0K
1L
0N
1O
1R
1T
0V
1W
1Y
1^
1`
0a
1c
1f
1h
1j
1k
0l
#8000000
b0011 !
b0101 "
0#
b1110 $
1%
b0011 &
b0101 '
0(
b1110 )
1*
0,
1/
00
01
03
17
08
0:
0;
0<
1>
0?
0B
0D
1F
0G
0I
0P
1Q
0[
1\
0^
1a
1b
0c
1e
0f
0h
0j
1l
1m
#9000000
b0000 !
b0000 "
b0000 $
0%
b0000 &
b0000 '
b0000 )
0*
0-
0.
0/
06
07
0>
0A
0C
0F
0H
0J
0L
0O
0Q
0R
0S
0T
0W
0X
0Y
0Z
0\
0`
0a
0b
0e
0k
0l
0m
