display_mux/output/display_mux_tb.vcd
$date
  Wed Jul 03 18:04:31 2024
$end
$version
  GHDL v0
$end
$timescale
  1 fs
$end
$scope module standard $end
$upscope $end
$scope module textio $end
$upscope $end
$scope module std_logic_1164 $end
$upscope $end
$scope module numeric_std $end
$upscope $end
$scope module display_mux_tb $end
$var reg 1 ! clk $end
$var reg 3 " clk1[2:0] $end
$var reg 4 # msb[3:0] $end
$var reg 4 $ isb[3:0] $end
$var reg 4 % lsb[3:0] $end
$var reg 7 & dado[6:0] $end
$var reg 1 ' sel1 $end
$var reg 1 ( sel2 $end
$var reg 1 ) sel3 $end
$var reg 1 * enable $end
$scope module timer $end
$var reg 1 + clk $end
$var reg 1 , enable $end
$upscope $end
$scope module mux $end
$var reg 4 - msb[3:0] $end
$var reg 4 . isb[3:0] $end
$var reg 4 / lsb[3:0] $end
$var reg 7 0 dado[6:0] $end
$var reg 1 1 sel1 $end
$var reg 1 2 sel2 $end
$var reg 1 3 sel3 $end
$var reg 1 4 clk $end
$var integer 32 5 contador_aux $end
$var reg 4 6 output_mux[3:0] $end
$var integer 32 7 valor_y $end
$upscope $end
$upscope $end
$enddefinitions $end
#0
1!
bUUU "
b1101 #
b0110 $
b1001 %
b0001100 &
0'
1(
1)
1*
1+
1,
b1101 -
b0110 .
b1001 /
b0001100 0
01
12
13
14
b0 5
b1001 6
b1001 7
#500000
0!
0+
04
#1000000
1!
1+
14
#1500000
0!
0+
04
#2000000
1!
1+
14
#2500000
0!
0+
04
#3000000
1!
1+
14
#3500000
0!
0+
04
#4000000
1!
b0100000 &
1'
0(
1+
b0100000 0
11
02
14
b1 5
b0110 6
b110 7
#4500000
0!
0+
04
#5000000
1!
1+
14
#5500000
0!
0+
04
#6000000
1!
1+
14
#6500000
0!
0+
04
#7000000
1!
1+
14
#7500000
0!
0+
04
#8000000
1!
1+
14
#8500000
0!
0+
04
#9000000
1!
b1000010 &
1(
0)
1+
b1000010 0
12
03
14
b10 5
b1101 6
b1101 7
#9500000
0!
0+
04
#10000000
1!
1+
14
#10500000
0!
0+
04
#11000000
1!
1+
14
#11500000
0!
0+
04
#12000000
1!
1+
14
#12500000
0!
0+
04
#13000000
1!
1+
14
#13500000
0!
0+
04
#14000000
1!
b0001100 &
0'
1)
1+
b0001100 0
01
13
14
b0 5
b1001 6
b1001 7
#14500000
0!
0+
04
#15000000
1!
1+
14
#15500000
0!
0+
04
#16000000
1!
1+
14
#16500000
0!
0+
04
#17000000
1!
1+
14
#17500000
0!
0+
04
#18000000
1!
1+
14
#18500000
0!
0+
04
#19000000
1!
b0100000 &
1'
0(
1+
b0100000 0
11
02
14
b1 5
b0110 6
b110 7
#19500000
0!
0+
04
#20000000
1!
1+
14
#20500000
0!
0+
04
#21000000
1!
1+
14
#21500000
0!
0+
04
#22000000
1!
1+
14
#22500000
0!
0+
04
#23000000
1!
1+
14
#23500000
0!
0+
04
#24000000
1!
b1000010 &
1(
0)
1+
b1000010 0
12
03
14
b10 5
b1101 6
b1101 7
#24500000
0!
0+
04
#25000000
1!
1+
14
#25500000
0!
0+
04
#26000000
1!
1+
14
#26500000
0!
0+
04
#27000000
1!
1+
14
#27500000
0!
0+
04
#28000000
1!
1+
14
#28500000
0!
0+
04
#29000000
1!
b0001100 &
0'
1)
1+
b0001100 0
01
13
14
b0 5
b1001 6
b1001 7
#29500000
0!
0+
04
#30000000
1!
1+
14
#30500000
0!
0+
04
#31000000
1!
1+
14
#31500000
0!
0+
04
#32000000
1!
1+
14
#32500000
0!
0+
04
#33000000
1!
1+
14
#33500000
0!
0+
04
#34000000
1!
b0100000 &
1'
0(
1+
b0100000 0
11
02
14
b1 5
b0110 6
b110 7
#34500000
0!
0+
04
#35000000
1!
1+
14
#35500000
0!
0+
04
#36000000
1!
1+
14
#36500000
0!
0+
04
#37000000
1!
1+
14
#37500000
0!
0+
04
#38000000
1!
1+
14
#38500000
0!
0+
04
#39000000
1!
b1000010 &
1(
0)
1+
b1000010 0
12
03
14
b10 5
b1101 6
b1101 7
#39500000
0!
0+
04
#40000000
1!
1+
14
#40500000
0!
0+
04
#41000000
1!
1+
14
#41500000
0!
0+
04
#42000000
1!
1+
14
#42500000
0!
0+
04
#43000000
1!
1+
14
#43500000
0!
0+
04
#44000000
1!
b0001100 &
0'
1)
1+
b0001100 0
01
13
14
b0 5
b1001 6
b1001 7
#44500000
0!
0+
04
#45000000
1!
1+
14
#45500000
0!
0+
04
#46000000
1!
1+
14
#46500000
0!
0+
04
#47000000
1!
1+
14
#47500000
0!
0+
04
#48000000
1!
1+
14
#48500000
0!
0+
04
#49000000
1!
b0100000 &
1'
0(
1+
b0100000 0
11
02
14
b1 5
b0110 6
b110 7
#49500000
0!
0+
04
#50000000
1!
0*
1+
0,
14
#50500000
0!
0+
04
#60000000
1*
1,
