display_mux/output/display_mux_tb.vcd
$date
  Wed Jul 03 21:53:31 2024
$end
$version
  GHDL v0
$end
$timescale
  1 fs
$end
$scope module standard $end
$upscope $end
$scope module textio $end
$upscope $end
$scope module std_logic_1164 $end
$upscope $end
$scope module numeric_std $end
$upscope $end
$scope module display_mux_tb $end
$var reg 1 ! clk $end
$var reg 16 " data_in[15:0] $end
$var reg 7 # data_out[6:0] $end
$var reg 8 $ sel[7:0] $end
$var reg 1 % enable $end
$scope module timer $end
$var reg 1 & clk $end
$var reg 1 ' enable $end
$upscope $end
$scope module mux $end
$var reg 16 ( data_in[15:0] $end
$var reg 7 ) data_out[6:0] $end
$var reg 8 * sel[7:0] $end
$var reg 1 + clk $end
$var integer 32 , contador_aux $end
$var reg 4 - output_mux[3:0] $end
$var integer 32 . valor_y $end
$upscope $end
$upscope $end
$enddefinitions $end
#0
1!
b0001001000110100 "
b1001111 #
b11111110 $
1%
1&
1'
b0001001000110100 (
b1001111 )
b11111110 *
1+
b0 ,
b0001 -
b1 .
#500000
0!
0&
0+
#1000000
1!
1&
1+
#1500000
0!
0&
0+
#2000000
1!
1&
1+
#2500000
0!
0&
0+
#3000000
1!
1&
1+
#3500000
0!
0&
0+
#4000000
1!
b0010010 #
b11111101 $
1&
b0010010 )
b11111101 *
1+
b1 ,
b0010 -
b10 .
#4500000
0!
0&
0+
#5000000
1!
1&
1+
#5500000
0!
0&
0+
#6000000
1!
1&
1+
#6500000
0!
0&
0+
#7000000
1!
1&
1+
#7500000
0!
0&
0+
#8000000
1!
1&
1+
#8500000
0!
0&
0+
#9000000
1!
b0000110 #
b11111011 $
1&
b0000110 )
b11111011 *
1+
b10 ,
b0011 -
b11 .
#9500000
0!
0&
0+
#10000000
1!
1&
1+
#10500000
0!
0&
0+
#11000000
1!
1&
1+
#11500000
0!
0&
0+
#12000000
1!
1&
1+
#12500000
0!
0&
0+
#13000000
1!
1&
1+
#13500000
0!
0&
0+
#14000000
1!
b1001100 #
b11110111 $
1&
b1001100 )
b11110111 *
1+
b11 ,
b0100 -
b100 .
#14500000
0!
0&
0+
#15000000
1!
1&
1+
#15500000
0!
0&
0+
#16000000
1!
1&
1+
#16500000
0!
0&
0+
#17000000
1!
1&
1+
#17500000
0!
0&
0+
#18000000
1!
1&
1+
#18500000
0!
0&
0+
#19000000
1!
b0000001 #
b11101111 $
1&
b0000001 )
b11101111 *
1+
b100 ,
b0000 -
b0 .
#19500000
0!
0&
0+
#20000000
1!
1&
1+
#20500000
0!
0&
0+
#21000000
1!
1&
1+
#21500000
0!
0&
0+
#22000000
1!
1&
1+
#22500000
0!
0&
0+
#23000000
1!
1&
1+
#23500000
0!
0&
0+
#24000000
1!
b11011111 $
1&
b11011111 *
1+
b101 ,
#24500000
0!
0&
0+
#25000000
1!
1&
1+
#25500000
0!
0&
0+
#26000000
1!
1&
1+
#26500000
0!
0&
0+
#27000000
1!
1&
1+
#27500000
0!
0&
0+
#28000000
1!
1&
1+
#28500000
0!
0&
0+
#29000000
1!
b10111111 $
1&
b10111111 *
1+
b110 ,
#29500000
0!
0&
0+
#30000000
1!
1&
1+
#30500000
0!
0&
0+
#31000000
1!
1&
1+
#31500000
0!
0&
0+
#32000000
1!
1&
1+
#32500000
0!
0&
0+
#33000000
1!
1&
1+
#33500000
0!
0&
0+
#34000000
1!
b01111111 $
1&
b01111111 *
1+
b111 ,
#34500000
0!
0&
0+
#35000000
1!
1&
1+
#35500000
0!
0&
0+
#36000000
1!
1&
1+
#36500000
0!
0&
0+
#37000000
1!
1&
1+
#37500000
0!
0&
0+
#38000000
1!
1&
1+
#38500000
0!
0&
0+
#39000000
1!
b1001111 #
b11111110 $
1&
b1001111 )
b11111110 *
1+
b0 ,
b0001 -
b1 .
#39500000
0!
0&
0+
#40000000
1!
1&
1+
#40500000
0!
0&
0+
#41000000
1!
1&
1+
#41500000
0!
0&
0+
#42000000
1!
1&
1+
#42500000
0!
0&
0+
#43000000
1!
1&
1+
#43500000
0!
0&
0+
#44000000
1!
b0010010 #
b11111101 $
1&
b0010010 )
b11111101 *
1+
b1 ,
b0010 -
b10 .
#44500000
0!
0&
0+
#45000000
1!
1&
1+
#45500000
0!
0&
0+
#46000000
1!
1&
1+
#46500000
0!
0&
0+
#47000000
1!
1&
1+
#47500000
0!
0&
0+
#48000000
1!
1&
1+
#48500000
0!
0&
0+
#49000000
1!
b0000110 #
b11111011 $
1&
b0000110 )
b11111011 *
1+
b10 ,
b0011 -
b11 .
#49500000
0!
0&
0+
#50000000
1!
0%
1&
0'
1+
#50500000
0!
0&
0+
#60000000
1%
1'
