full_subber/output/full_subber_tb.vcd
$date
  Sat Jun 22 22:12:06 2024
$end
$version
  GHDL v0
$end
$timescale
  1 fs
$end
$scope module standard $end
$upscope $end
$scope module textio $end
$upscope $end
$scope module std_logic_1164 $end
$upscope $end
$scope module full_subber_tb $end
$var reg 1 ! a $end
$var reg 1 " b $end
$var reg 1 # b_in $end
$var reg 1 $ dif $end
$var reg 1 % b_out $end
$scope module x $end
$var reg 1 & a $end
$var reg 1 ' b $end
$var reg 1 ( b_in $end
$var reg 1 ) dif $end
$var reg 1 * b_out $end
$var reg 1 + x $end
$var reg 1 , y $end
$var reg 1 - z $end
$scope module hb1 $end
$var reg 1 . a $end
$var reg 1 / b $end
$var reg 1 0 dif $end
$var reg 1 1 borrow $end
$upscope $end
$scope module hb2 $end
$var reg 1 2 a $end
$var reg 1 3 b $end
$var reg 1 4 dif $end
$var reg 1 5 borrow $end
$upscope $end
$upscope $end
$upscope $end
$enddefinitions $end
#0
X!
X"
X#
X$
X%
X&
X'
X(
X)
X*
X+
X,
X-
X.
X/
X0
X1
X2
X3
X4
X5
#1000000
0!
0"
0#
0$
0%
0&
0'
0(
0)
0*
0+
0,
0-
0.
0/
00
01
02
03
04
05
#2000000
1#
1$
1%
1(
1)
1*
1-
13
14
15
#3000000
1"
0#
1$
1'
0(
1)
1+
1,
0-
1/
10
11
12
03
14
05
#4000000
1#
0$
1(
0)
13
04
#5000000
1!
0"
0#
1$
0%
1&
0'
0(
1)
0*
0,
1.
0/
01
03
14
#6000000
1#
0$
1(
0)
13
04
#7000000
1"
0#
0$
1'
0(
0)
0+
1/
00
02
03
04
#8000000
1#
1$
1%
1(
1)
1*
1-
13
14
15
