generic_rom/output/generic_rom_tb.vcd
$date
  Sun Jun 23 18:01:01 2024
$end
$version
  GHDL v0
$end
$timescale
  1 fs
$end
$scope module standard $end
$upscope $end
$scope module textio $end
$upscope $end
$scope module std_logic_1164 $end
$upscope $end
$scope module numeric_std $end
$upscope $end
$scope module generic_rom_tb $end
$var reg 1 ! cs $end
$var reg 1 " oe $end
$var reg 8 # addr[7:0] $end
$var reg 16 $ data_out[15:0] $end
$scope module rom $end
$var reg 1 % cs $end
$var reg 1 & oe $end
$var reg 8 ' address[7:0] $end
$var reg 16 ( data_out[15:0] $end
$upscope $end
$upscope $end
$enddefinitions $end
#0
0!
0"
b00000000 #
b1010101010101010 $
0%
0&
b00000000 '
b1010101010101010 (
#10000000
b00000001 #
b1011101110111011 $
b00000001 '
b1011101110111011 (
#20000000
b00000010 #
b1100110011001100 $
b00000010 '
b1100110011001100 (
#30000000
b00000011 #
b1101110111011101 $
b00000011 '
b1101110111011101 (
#40000000
b00000100 #
b0000000000000000 $
b00000100 '
b0000000000000000 (
#50000000
b00000101 #
b00000101 '
#60000000
b00000110 #
b00000110 '
#70000000
b00000111 #
b00000111 '
#80000000
b00001000 #
b00001000 '
#90000000
b00001001 #
b00001001 '
#100000000
b00001010 #
b00001010 '
#110000000
b00001011 #
b00001011 '
#120000000
b00001100 #
b00001100 '
#130000000
b00001101 #
b00001101 '
#140000000
b00001110 #
b00001110 '
#150000000
b00001111 #
b00001111 '
#160000000
1!
bZZZZZZZZZZZZZZZZ $
1%
bZZZZZZZZZZZZZZZZ (
#170000000
0!
1"
0%
1&
#180000000
1!
1%
#190000000
0!
0%
#200000000
1!
1%
#210000000
0!
0"
b00000000 #
b1010101010101010 $
0%
0&
b00000000 '
b1010101010101010 (
#220000000
b00000001 #
b1011101110111011 $
b00000001 '
b1011101110111011 (
#230000000
b00000010 #
b1100110011001100 $
b00000010 '
b1100110011001100 (
#240000000
b00000011 #
b1101110111011101 $
b00000011 '
b1101110111011101 (
#250000000
b00000100 #
b0000000000000000 $
b00000100 '
b0000000000000000 (
#260000000
b00000101 #
b00000101 '
#270000000
b00000110 #
b00000110 '
#280000000
b00000111 #
b00000111 '
#290000000
b00001000 #
b00001000 '
#300000000
b00001001 #
b00001001 '
#310000000
b00001010 #
b00001010 '
#320000000
b00001011 #
b00001011 '
#330000000
b00001100 #
b00001100 '
#340000000
b00001101 #
b00001101 '
#350000000
b00001110 #
b00001110 '
#360000000
b00001111 #
b00001111 '
