full_adder_16bit/output/full_adder_16bit_tb.vcd
$date
  Sat Jun 22 21:27:41 2024
$end
$version
  GHDL v0
$end
$timescale
  1 fs
$end
$scope module standard $end
$upscope $end
$scope module textio $end
$upscope $end
$scope module std_logic_1164 $end
$upscope $end
$scope module full_adder_16bit_tb $end
$var reg 16 ! a[15:0] $end
$var reg 16 " b[15:0] $end
$var reg 1 # carry_in $end
$var reg 16 $ sum[15:0] $end
$var reg 1 % carry_out $end
$scope module x $end
$var reg 16 & a[15:0] $end
$var reg 16 ' b[15:0] $end
$var reg 1 ( carry_in $end
$var reg 16 ) sum[15:0] $end
$var reg 1 * carry_out $end
$var reg 1 + c1 $end
$var reg 1 , c2 $end
$var reg 1 - c3 $end
$scope module fa0 $end
$var reg 4 . a[3:0] $end
$var reg 4 / b[3:0] $end
$var reg 1 0 carry_in $end
$var reg 4 1 sum[3:0] $end
$var reg 1 2 carry_out $end
$var reg 1 3 c1 $end
$var reg 1 4 c2 $end
$var reg 1 5 c3 $end
$scope module fa0 $end
$var reg 1 6 a $end
$var reg 1 7 b $end
$var reg 1 8 carry_in $end
$var reg 1 9 sum $end
$var reg 1 : carry_out $end
$var reg 1 ; x $end
$var reg 1 < y $end
$var reg 1 = z $end
$scope module half_adder_1 $end
$var reg 1 > a $end
$var reg 1 ? b $end
$var reg 1 @ sum $end
$var reg 1 A carry $end
$upscope $end
$scope module half_adder_2 $end
$var reg 1 B a $end
$var reg 1 C b $end
$var reg 1 D sum $end
$var reg 1 E carry $end
$upscope $end
$upscope $end
$scope module fa1 $end
$var reg 1 F a $end
$var reg 1 G b $end
$var reg 1 H carry_in $end
$var reg 1 I sum $end
$var reg 1 J carry_out $end
$var reg 1 K x $end
$var reg 1 L y $end
$var reg 1 M z $end
$scope module half_adder_1 $end
$var reg 1 N a $end
$var reg 1 O b $end
$var reg 1 P sum $end
$var reg 1 Q carry $end
$upscope $end
$scope module half_adder_2 $end
$var reg 1 R a $end
$var reg 1 S b $end
$var reg 1 T sum $end
$var reg 1 U carry $end
$upscope $end
$upscope $end
$scope module fa2 $end
$var reg 1 V a $end
$var reg 1 W b $end
$var reg 1 X carry_in $end
$var reg 1 Y sum $end
$var reg 1 Z carry_out $end
$var reg 1 [ x $end
$var reg 1 \ y $end
$var reg 1 ] z $end
$scope module half_adder_1 $end
$var reg 1 ^ a $end
$var reg 1 _ b $end
$var reg 1 ` sum $end
$var reg 1 a carry $end
$upscope $end
$scope module half_adder_2 $end
$var reg 1 b a $end
$var reg 1 c b $end
$var reg 1 d sum $end
$var reg 1 e carry $end
$upscope $end
$upscope $end
$scope module fa3 $end
$var reg 1 f a $end
$var reg 1 g b $end
$var reg 1 h carry_in $end
$var reg 1 i sum $end
$var reg 1 j carry_out $end
$var reg 1 k x $end
$var reg 1 l y $end
$var reg 1 m z $end
$scope module half_adder_1 $end
$var reg 1 n a $end
$var reg 1 o b $end
$var reg 1 p sum $end
$var reg 1 q carry $end
$upscope $end
$scope module half_adder_2 $end
$var reg 1 r a $end
$var reg 1 s b $end
$var reg 1 t sum $end
$var reg 1 u carry $end
$upscope $end
$upscope $end
$upscope $end
$scope module fa1 $end
$var reg 4 v a[3:0] $end
$var reg 4 w b[3:0] $end
$var reg 1 x carry_in $end
$var reg 4 y sum[3:0] $end
$var reg 1 z carry_out $end
$var reg 1 { c1 $end
$var reg 1 | c2 $end
$var reg 1 } c3 $end
$scope module fa0 $end
$var reg 1 !" a $end
$var reg 1 "" b $end
$var reg 1 #" carry_in $end
$var reg 1 $" sum $end
$var reg 1 %" carry_out $end
$var reg 1 &" x $end
$var reg 1 '" y $end
$var reg 1 (" z $end
$scope module half_adder_1 $end
$var reg 1 )" a $end
$var reg 1 *" b $end
$var reg 1 +" sum $end
$var reg 1 ," carry $end
$upscope $end
$scope module half_adder_2 $end
$var reg 1 -" a $end
$var reg 1 ." b $end
$var reg 1 /" sum $end
$var reg 1 0" carry $end
$upscope $end
$upscope $end
$scope module fa1 $end
$var reg 1 1" a $end
$var reg 1 2" b $end
$var reg 1 3" carry_in $end
$var reg 1 4" sum $end
$var reg 1 5" carry_out $end
$var reg 1 6" x $end
$var reg 1 7" y $end
$var reg 1 8" z $end
$scope module half_adder_1 $end
$var reg 1 9" a $end
$var reg 1 :" b $end
$var reg 1 ;" sum $end
$var reg 1 <" carry $end
$upscope $end
$scope module half_adder_2 $end
$var reg 1 =" a $end
$var reg 1 >" b $end
$var reg 1 ?" sum $end
$var reg 1 @" carry $end
$upscope $end
$upscope $end
$scope module fa2 $end
$var reg 1 A" a $end
$var reg 1 B" b $end
$var reg 1 C" carry_in $end
$var reg 1 D" sum $end
$var reg 1 E" carry_out $end
$var reg 1 F" x $end
$var reg 1 G" y $end
$var reg 1 H" z $end
$scope module half_adder_1 $end
$var reg 1 I" a $end
$var reg 1 J" b $end
$var reg 1 K" sum $end
$var reg 1 L" carry $end
$upscope $end
$scope module half_adder_2 $end
$var reg 1 M" a $end
$var reg 1 N" b $end
$var reg 1 O" sum $end
$var reg 1 P" carry $end
$upscope $end
$upscope $end
$scope module fa3 $end
$var reg 1 Q" a $end
$var reg 1 R" b $end
$var reg 1 S" carry_in $end
$var reg 1 T" sum $end
$var reg 1 U" carry_out $end
$var reg 1 V" x $end
$var reg 1 W" y $end
$var reg 1 X" z $end
$scope module half_adder_1 $end
$var reg 1 Y" a $end
$var reg 1 Z" b $end
$var reg 1 [" sum $end
$var reg 1 \" carry $end
$upscope $end
$scope module half_adder_2 $end
$var reg 1 ]" a $end
$var reg 1 ^" b $end
$var reg 1 _" sum $end
$var reg 1 `" carry $end
$upscope $end
$upscope $end
$upscope $end
$scope module fa2 $end
$var reg 4 a" a[3:0] $end
$var reg 4 b" b[3:0] $end
$var reg 1 c" carry_in $end
$var reg 4 d" sum[3:0] $end
$var reg 1 e" carry_out $end
$var reg 1 f" c1 $end
$var reg 1 g" c2 $end
$var reg 1 h" c3 $end
$scope module fa0 $end
$var reg 1 i" a $end
$var reg 1 j" b $end
$var reg 1 k" carry_in $end
$var reg 1 l" sum $end
$var reg 1 m" carry_out $end
$var reg 1 n" x $end
$var reg 1 o" y $end
$var reg 1 p" z $end
$scope module half_adder_1 $end
$var reg 1 q" a $end
$var reg 1 r" b $end
$var reg 1 s" sum $end
$var reg 1 t" carry $end
$upscope $end
$scope module half_adder_2 $end
$var reg 1 u" a $end
$var reg 1 v" b $end
$var reg 1 w" sum $end
$var reg 1 x" carry $end
$upscope $end
$upscope $end
$scope module fa1 $end
$var reg 1 y" a $end
$var reg 1 z" b $end
$var reg 1 {" carry_in $end
$var reg 1 |" sum $end
$var reg 1 }" carry_out $end
$var reg 1 !# x $end
$var reg 1 "# y $end
$var reg 1 ## z $end
$scope module half_adder_1 $end
$var reg 1 $# a $end
$var reg 1 %# b $end
$var reg 1 &# sum $end
$var reg 1 '# carry $end
$upscope $end
$scope module half_adder_2 $end
$var reg 1 (# a $end
$var reg 1 )# b $end
$var reg 1 *# sum $end
$var reg 1 +# carry $end
$upscope $end
$upscope $end
$scope module fa2 $end
$var reg 1 ,# a $end
$var reg 1 -# b $end
$var reg 1 .# carry_in $end
$var reg 1 /# sum $end
$var reg 1 0# carry_out $end
$var reg 1 1# x $end
$var reg 1 2# y $end
$var reg 1 3# z $end
$scope module half_adder_1 $end
$var reg 1 4# a $end
$var reg 1 5# b $end
$var reg 1 6# sum $end
$var reg 1 7# carry $end
$upscope $end
$scope module half_adder_2 $end
$var reg 1 8# a $end
$var reg 1 9# b $end
$var reg 1 :# sum $end
$var reg 1 ;# carry $end
$upscope $end
$upscope $end
$scope module fa3 $end
$var reg 1 <# a $end
$var reg 1 =# b $end
$var reg 1 ># carry_in $end
$var reg 1 ?# sum $end
$var reg 1 @# carry_out $end
$var reg 1 A# x $end
$var reg 1 B# y $end
$var reg 1 C# z $end
$scope module half_adder_1 $end
$var reg 1 D# a $end
$var reg 1 E# b $end
$var reg 1 F# sum $end
$var reg 1 G# carry $end
$upscope $end
$scope module half_adder_2 $end
$var reg 1 H# a $end
$var reg 1 I# b $end
$var reg 1 J# sum $end
$var reg 1 K# carry $end
$upscope $end
$upscope $end
$upscope $end
$scope module fa3 $end
$var reg 4 L# a[3:0] $end
$var reg 4 M# b[3:0] $end
$var reg 1 N# carry_in $end
$var reg 4 O# sum[3:0] $end
$var reg 1 P# carry_out $end
$var reg 1 Q# c1 $end
$var reg 1 R# c2 $end
$var reg 1 S# c3 $end
$scope module fa0 $end
$var reg 1 T# a $end
$var reg 1 U# b $end
$var reg 1 V# carry_in $end
$var reg 1 W# sum $end
$var reg 1 X# carry_out $end
$var reg 1 Y# x $end
$var reg 1 Z# y $end
$var reg 1 [# z $end
$scope module half_adder_1 $end
$var reg 1 \# a $end
$var reg 1 ]# b $end
$var reg 1 ^# sum $end
$var reg 1 _# carry $end
$upscope $end
$scope module half_adder_2 $end
$var reg 1 `# a $end
$var reg 1 a# b $end
$var reg 1 b# sum $end
$var reg 1 c# carry $end
$upscope $end
$upscope $end
$scope module fa1 $end
$var reg 1 d# a $end
$var reg 1 e# b $end
$var reg 1 f# carry_in $end
$var reg 1 g# sum $end
$var reg 1 h# carry_out $end
$var reg 1 i# x $end
$var reg 1 j# y $end
$var reg 1 k# z $end
$scope module half_adder_1 $end
$var reg 1 l# a $end
$var reg 1 m# b $end
$var reg 1 n# sum $end
$var reg 1 o# carry $end
$upscope $end
$scope module half_adder_2 $end
$var reg 1 p# a $end
$var reg 1 q# b $end
$var reg 1 r# sum $end
$var reg 1 s# carry $end
$upscope $end
$upscope $end
$scope module fa2 $end
$var reg 1 t# a $end
$var reg 1 u# b $end
$var reg 1 v# carry_in $end
$var reg 1 w# sum $end
$var reg 1 x# carry_out $end
$var reg 1 y# x $end
$var reg 1 z# y $end
$var reg 1 {# z $end
$scope module half_adder_1 $end
$var reg 1 |# a $end
$var reg 1 }# b $end
$var reg 1 !$ sum $end
$var reg 1 "$ carry $end
$upscope $end
$scope module half_adder_2 $end
$var reg 1 #$ a $end
$var reg 1 $$ b $end
$var reg 1 %$ sum $end
$var reg 1 &$ carry $end
$upscope $end
$upscope $end
$scope module fa3 $end
$var reg 1 '$ a $end
$var reg 1 ($ b $end
$var reg 1 )$ carry_in $end
$var reg 1 *$ sum $end
$var reg 1 +$ carry_out $end
$var reg 1 ,$ x $end
$var reg 1 -$ y $end
$var reg 1 .$ z $end
$scope module half_adder_1 $end
$var reg 1 /$ a $end
$var reg 1 0$ b $end
$var reg 1 1$ sum $end
$var reg 1 2$ carry $end
$upscope $end
$scope module half_adder_2 $end
$var reg 1 3$ a $end
$var reg 1 4$ b $end
$var reg 1 5$ sum $end
$var reg 1 6$ carry $end
$upscope $end
$upscope $end
$upscope $end
$upscope $end
$upscope $end
$enddefinitions $end
#0
b0000000000000001 !
b0000000000000010 "
0#
b0000000000000011 $
0%
b0000000000000001 &
b0000000000000010 '
0(
b0000000000000011 )
0*
0+
0,
0-
b0001 .
b0010 /
00
b0011 1
02
03
04
05
16
07
08
19
0:
1;
0<
0=
1>
0?
1@
0A
1B
0C
1D
0E
0F
1G
0H
1I
0J
1K
0L
0M
0N
1O
1P
0Q
1R
0S
1T
0U
0V
0W
0X
0Y
0Z
0[
0\
0]
0^
0_
0`
0a
0b
0c
0d
0e
0f
0g
0h
0i
0j
0k
0l
0m
0n
0o
0p
0q
0r
0s
0t
0u
b0000 v
b0000 w
0x
b0000 y
0z
0{
0|
0}
0!"
0""
0#"
0$"
0%"
0&"
0'"
0("
0)"
0*"
0+"
0,"
0-"
0."
0/"
00"
01"
02"
03"
04"
05"
06"
07"
08"
09"
0:"
0;"
0<"
0="
0>"
0?"
0@"
0A"
0B"
0C"
0D"
0E"
0F"
0G"
0H"
0I"
0J"
0K"
0L"
0M"
0N"
0O"
0P"
0Q"
0R"
0S"
0T"
0U"
0V"
0W"
0X"
0Y"
0Z"
0["
0\"
0]"
0^"
0_"
0`"
b0000 a"
b0000 b"
0c"
b0000 d"
0e"
0f"
0g"
0h"
0i"
0j"
0k"
0l"
0m"
0n"
0o"
0p"
0q"
0r"
0s"
0t"
0u"
0v"
0w"
0x"
0y"
0z"
0{"
0|"
0}"
0!#
0"#
0##
0$#
0%#
0&#
0'#
0(#
0)#
0*#
0+#
0,#
0-#
0.#
0/#
00#
01#
02#
03#
04#
05#
06#
07#
08#
09#
0:#
0;#
0<#
0=#
0>#
0?#
0@#
0A#
0B#
0C#
0D#
0E#
0F#
0G#
0H#
0I#
0J#
0K#
b0000 L#
b0000 M#
0N#
b0000 O#
0P#
0Q#
0R#
0S#
0T#
0U#
0V#
0W#
0X#
0Y#
0Z#
0[#
0\#
0]#
0^#
0_#
0`#
0a#
0b#
0c#
0d#
0e#
0f#
0g#
0h#
0i#
0j#
0k#
0l#
0m#
0n#
0o#
0p#
0q#
0r#
0s#
0t#
0u#
0v#
0w#
0x#
0y#
0z#
0{#
0|#
0}#
0!$
0"$
0#$
0$$
0%$
0&$
0'$
0($
0)$
0*$
0+$
0,$
0-$
0.$
0/$
00$
01$
02$
03$
04$
05$
06$
#1000000
1#
b0000000000000100 $
1(
b0000000000000100 )
10
b0100 1
13
14
18
09
1:
1=
1C
0D
1E
1H
0I
1J
1M
1S
0T
1U
1X
1Y
1c
1d
#2000000
b1111111111111111 !
b0000000000000001 "
0#
b0000000000000000 $
1%
b1111111111111111 &
b0000000000000001 '
0(
b0000000000000000 )
1*
1+
1,
1-
b1111 .
b0001 /
00
b0000 1
12
15
17
08
09
0;
1<
0=
1?
0@
1A
0B
0C
0D
0E
1F
0G
1N
0O
1V
0Y
1Z
1[
1]
1^
1`
1b
0d
1e
1f
1h
0i
1j
1k
1m
1n
1p
1r
1s
0t
1u
b1111 v
1x
b0000 y
1z
1{
1|
1}
1!"
1#"
0$"
1%"
1&"
1("
1)"
1+"
1-"
1."
0/"
10"
11"
13"
04"
15"
16"
18"
19"
1;"
1="
1>"
0?"
1@"
1A"
1C"
0D"
1E"
1F"
1H"
1I"
1K"
1M"
1N"
0O"
1P"
1Q"
1S"
0T"
1U"
1V"
1X"
1Y"
1["
1]"
1^"
0_"
1`"
b1111 a"
1c"
b0000 d"
1e"
1f"
1g"
1h"
1i"
1k"
0l"
1m"
1n"
1p"
1q"
1s"
1u"
1v"
0w"
1x"
1y"
1{"
0|"
1}"
1!#
1##
1$#
1&#
1(#
1)#
0*#
1+#
1,#
1.#
0/#
10#
11#
13#
14#
16#
18#
19#
0:#
1;#
1<#
1>#
0?#
1@#
1A#
1C#
1D#
1F#
1H#
1I#
0J#
1K#
b1111 L#
1N#
b0000 O#
1P#
1Q#
1R#
1S#
1T#
1V#
0W#
1X#
1Y#
1[#
1\#
1^#
1`#
1a#
0b#
1c#
1d#
1f#
0g#
1h#
1i#
1k#
1l#
1n#
1p#
1q#
0r#
1s#
1t#
1v#
0w#
1x#
1y#
1{#
1|#
1!$
1#$
1$$
0%$
1&$
1'$
1)$
0*$
1+$
1,$
1.$
1/$
11$
13$
14$
05$
16$
#3000000
b1111111111111111 "
b1111111111111110 $
b1111111111111111 '
b1111111111111110 )
b1111 /
b1110 1
1G
1I
0K
1L
0M
1O
0P
1Q
0R
1T
0U
1W
1Y
0[
1\
0]
1_
0`
1a
0b
1d
0e
1g
1i
0k
1l
0m
1o
0p
1q
0r
1t
0u
b1111 w
b1111 y
1""
1$"
0&"
1'"
0("
1*"
0+"
1,"
0-"
1/"
00"
12"
14"
06"
17"
08"
1:"
0;"
1<"
0="
1?"
0@"
1B"
1D"
0F"
1G"
0H"
1J"
0K"
1L"
0M"
1O"
0P"
1R"
1T"
0V"
1W"
0X"
1Z"
0["
1\"
0]"
1_"
0`"
b1111 b"
b1111 d"
1j"
1l"
0n"
1o"
0p"
1r"
0s"
1t"
0u"
1w"
0x"
1z"
1|"
0!#
1"#
0##
1%#
0&#
1'#
0(#
1*#
0+#
1-#
1/#
01#
12#
03#
15#
06#
17#
08#
1:#
0;#
1=#
1?#
0A#
1B#
0C#
1E#
0F#
1G#
0H#
1J#
0K#
b1111 M#
b1111 O#
1U#
1W#
0Y#
1Z#
0[#
1]#
0^#
1_#
0`#
1b#
0c#
1e#
1g#
0i#
1j#
0k#
1m#
0n#
1o#
0p#
1r#
0s#
1u#
1w#
0y#
1z#
0{#
1}#
0!$
1"$
0#$
1%$
0&$
1($
1*$
0,$
1-$
0.$
10$
01$
12$
03$
15$
06$
#4000000
b1001100110011001 !
b0110011001100110 "
b1111111111111111 $
0%
b1001100110011001 &
b0110011001100110 '
b1111111111111111 )
0*
0+
0,
0-
b1001 .
b0110 /
b1111 1
02
03
04
05
07
19
0:
1;
0<
0?
1@
0A
1B
1D
0F
0H
1I
0J
1K
0L
0M
0N
1P
0Q
1R
0S
1T
0U
0V
0X
1Y
0Z
1[
0\
0]
0^
1`
0a
1b
0c
1d
0e
0g
0h
1i
0j
1k
0l
0m
0o
1p
0q
1r
0s
1t
0u
b1001 v
b0110 w
0x
b1111 y
0z
0{
0|
0}
0""
0#"
1$"
0%"
1&"
0'"
0("
0*"
1+"
0,"
1-"
0."
1/"
00"
01"
03"
14"
05"
16"
07"
08"
09"
1;"
0<"
1="
0>"
1?"
0@"
0A"
0C"
1D"
0E"
1F"
0G"
0H"
0I"
1K"
0L"
1M"
0N"
1O"
0P"
0R"
0S"
1T"
0U"
1V"
0W"
0X"
0Z"
1["
0\"
1]"
0^"
1_"
0`"
b1001 a"
b0110 b"
0c"
b1111 d"
0e"
0f"
0g"
0h"
0j"
0k"
1l"
0m"
1n"
0o"
0p"
0r"
1s"
0t"
1u"
0v"
1w"
0x"
0y"
0{"
1|"
0}"
1!#
0"#
0##
0$#
1&#
0'#
1(#
0)#
1*#
0+#
0,#
0.#
1/#
00#
11#
02#
03#
04#
16#
07#
18#
09#
1:#
0;#
0=#
0>#
1?#
0@#
1A#
0B#
0C#
0E#
1F#
0G#
1H#
0I#
1J#
0K#
b1001 L#
b0110 M#
0N#
b1111 O#
0P#
0Q#
0R#
0S#
0U#
0V#
1W#
0X#
1Y#
0Z#
0[#
0]#
1^#
0_#
1`#
0a#
1b#
0c#
0d#
0f#
1g#
0h#
1i#
0j#
0k#
0l#
1n#
0o#
1p#
0q#
1r#
0s#
0t#
0v#
1w#
0x#
1y#
0z#
0{#
0|#
1!$
0"$
1#$
0$$
1%$
0&$
0($
0)$
1*$
0+$
1,$
0-$
0.$
00$
11$
02$
13$
04$
15$
06$
#5000000
1#
b0000000000000000 $
1%
1(
b0000000000000000 )
1*
1+
1,
1-
10
b0000 1
12
13
14
15
18
09
1:
1=
1C
0D
1E
1H
0I
1J
1M
1S
0T
1U
1X
0Y
1Z
1]
1c
0d
1e
1h
0i
1j
1m
1s
0t
1u
1x
b0000 y
1z
1{
1|
1}
1#"
0$"
1%"
1("
1."
0/"
10"
13"
04"
15"
18"
1>"
0?"
1@"
1C"
0D"
1E"
1H"
1N"
0O"
1P"
1S"
0T"
1U"
1X"
1^"
0_"
1`"
1c"
b0000 d"
1e"
1f"
1g"
1h"
1k"
0l"
1m"
1p"
1v"
0w"
1x"
1{"
0|"
1}"
1##
1)#
0*#
1+#
1.#
0/#
10#
13#
19#
0:#
1;#
1>#
0?#
1@#
1C#
1I#
0J#
1K#
1N#
b0000 O#
1P#
1Q#
1R#
1S#
1V#
0W#
1X#
1[#
1a#
0b#
1c#
1f#
0g#
1h#
1k#
1q#
0r#
1s#
1v#
0w#
1x#
1{#
1$$
0%$
1&$
1)$
0*$
1+$
1.$
14$
05$
16$
#6000000
b0000111100001111 !
b1111000011110000 "
0#
b1111111111111111 $
0%
b0000111100001111 &
b1111000011110000 '
0(
b1111111111111111 )
0*
0+
0,
0-
b1111 .
b0000 /
00
b1111 1
02
03
04
05
08
19
0:
0=
0C
1D
0E
1F
0G
0H
1I
0J
0M
1N
0O
0S
1T
0U
1V
0W
0X
1Y
0Z
0]
1^
0_
0c
1d
0e
0h
1i
0j
0m
0s
1t
0u
b0000 v
b1111 w
0x
b1111 y
0z
0{
0|
0}
0!"
1""
0#"
1$"
0%"
0("
0)"
1*"
0."
1/"
00"
03"
14"
05"
08"
0>"
1?"
0@"
0C"
1D"
0E"
0H"
0N"
1O"
0P"
0Q"
1R"
0S"
1T"
0U"
0X"
0Y"
1Z"
0^"
1_"
0`"
b1111 a"
b0000 b"
0c"
b1111 d"
0e"
0f"
0g"
0h"
0k"
1l"
0m"
0p"
0v"
1w"
0x"
1y"
0z"
0{"
1|"
0}"
0##
1$#
0%#
0)#
1*#
0+#
1,#
0-#
0.#
1/#
00#
03#
14#
05#
09#
1:#
0;#
0>#
1?#
0@#
0C#
0I#
1J#
0K#
b0000 L#
b1111 M#
0N#
b1111 O#
0P#
0Q#
0R#
0S#
0T#
1U#
0V#
1W#
0X#
0[#
0\#
1]#
0a#
1b#
0c#
0f#
1g#
0h#
0k#
0q#
1r#
0s#
0v#
1w#
0x#
0{#
0$$
1%$
0&$
0'$
1($
0)$
1*$
0+$
0.$
0/$
10$
04$
15$
06$
#7000000
1#
b0000000000000000 $
1%
1(
b0000000000000000 )
1*
1+
1,
1-
10
b0000 1
12
13
14
15
18
09
1:
1=
1C
0D
1E
1H
0I
1J
1M
1S
0T
1U
1X
0Y
1Z
1]
1c
0d
1e
1h
0i
1j
1m
1s
0t
1u
1x
b0000 y
1z
1{
1|
1}
1#"
0$"
1%"
1("
1."
0/"
10"
13"
04"
15"
18"
1>"
0?"
1@"
1C"
0D"
1E"
1H"
1N"
0O"
1P"
1S"
0T"
1U"
1X"
1^"
0_"
1`"
1c"
b0000 d"
1e"
1f"
1g"
1h"
1k"
0l"
1m"
1p"
1v"
0w"
1x"
1{"
0|"
1}"
1##
1)#
0*#
1+#
1.#
0/#
10#
13#
19#
0:#
1;#
1>#
0?#
1@#
1C#
1I#
0J#
1K#
1N#
b0000 O#
1P#
1Q#
1R#
1S#
1V#
0W#
1X#
1[#
1a#
0b#
1c#
1f#
0g#
1h#
1k#
1q#
0r#
1s#
1v#
0w#
1x#
1{#
1$$
0%$
1&$
1)$
0*$
1+$
1.$
14$
05$
16$
#8000000
b0111111111111111 !
b0000000000000001 "
0#
b1000000000000000 $
0%
b0111111111111111 &
b0000000000000001 '
0(
b1000000000000000 )
0*
b0001 /
00
b0000 1
17
08
09
0;
1<
0=
1?
0@
1A
0B
0C
0D
0E
b1111 v
b0000 w
1!"
0""
1)"
0*"
11"
02"
19"
0:"
1A"
0B"
1I"
0J"
1Q"
0R"
1Y"
0Z"
b0111 L#
b0000 M#
b1000 O#
0P#
1T#
0U#
1\#
0]#
1d#
0e#
1l#
0m#
1t#
0u#
1|#
0}#
0($
1*$
0+$
0,$
0.$
00$
01$
03$
15$
06$
#9000000
b1000000000000000 !
b1000000000000000 "
b0000000000000000 $
1%
b1000000000000000 &
b1000000000000000 '
b0000000000000000 )
1*
0+
0,
0-
b0000 .
b0000 /
b0000 1
02
03
04
05
06
07
0:
0<
0>
0?
0A
0F
0H
0I
0J
0K
0M
0N
0P
0R
0S
0T
0U
0V
0X
0Y
0Z
0[
0]
0^
0`
0b
0c
0d
0e
0f
0h
0i
0j
0k
0m
0n
0p
0r
0s
0t
0u
b0000 v
0x
b0000 y
0z
0{
0|
0}
0!"
0#"
0$"
0%"
0&"
0("
0)"
0+"
0-"
0."
0/"
00"
01"
03"
04"
05"
06"
08"
09"
0;"
0="
0>"
0?"
0@"
0A"
0C"
0D"
0E"
0F"
0H"
0I"
0K"
0M"
0N"
0O"
0P"
0Q"
0S"
0T"
0U"
0V"
0X"
0Y"
0["
0]"
0^"
0_"
0`"
b0000 a"
0c"
b0000 d"
0e"
0f"
0g"
0h"
0i"
0k"
0l"
0m"
0n"
0p"
0q"
0s"
0u"
0v"
0w"
0x"
0y"
0{"
0|"
0}"
0!#
0##
0$#
0&#
0(#
0)#
0*#
0+#
0,#
0.#
0/#
00#
01#
03#
04#
06#
08#
09#
0:#
0;#
0<#
0>#
0?#
0@#
0A#
0C#
0D#
0F#
0H#
0I#
0J#
0K#
b1000 L#
b1000 M#
0N#
b0000 O#
1P#
0Q#
0R#
0S#
0T#
0V#
0W#
0X#
0Y#
0[#
0\#
0^#
0`#
0a#
0b#
0c#
0d#
0f#
0g#
0h#
0i#
0k#
0l#
0n#
0p#
0q#
0r#
0s#
0t#
0v#
0w#
0x#
0y#
0{#
0|#
0!$
0#$
0$$
0%$
0&$
1'$
1($
0)$
0*$
1+$
1-$
1/$
10$
12$
04$
05$
